<?xml version="1.0" encoding="utf-8"?>
<!-- Generator: Adobe Illustrator 16.0.0, SVG Export Plug-In . SVG Version: 6.00 Build 0)  -->
<!DOCTYPE svg PUBLIC "-//W3C//DTD SVG 1.1//EN" "http://www.w3.org/Graphics/SVG/1.1/DTD/svg11.dtd">
<svg version="1.1" id="Layer_1" xmlns="http://www.w3.org/2000/svg" xmlns:xlink="http://www.w3.org/1999/xlink" x="0px" y="0px"
	 width="401.117px" height="586.88px" viewBox="0 0 401.117 586.88" enable-background="new 0 0 401.117 586.88"
	 xml:space="preserve">
<g id="flaticon1507015670-svg" transform="translate(-98.017 4284)">
	<g id="Group_10" transform="translate(575.017 260)">
		<path id="Path_24" fill="#EBAD21" d="M-155.164-4340.425l76.605-102.734c4.461-5.997,3.215-14.476-2.781-18.937
			c-2.332-1.734-5.16-2.672-8.064-2.675h-329.83v-17.26c16.294-7.476,23.443-26.742,15.969-43.036
			c-7.474-16.294-26.743-23.443-43.037-15.97s-23.442,26.743-15.968,43.036c3.239,7.063,8.905,12.729,15.968,15.97v497.843h-17.144
			c-7.475-0.012-13.543,6.039-13.554,13.516c-0.011,7.475,6.04,13.541,13.515,13.553c0.013,0,0.025,0,0.039,0h61.356
			c7.475-0.012,13.525-6.078,13.515-13.553c-0.011-7.461-6.055-13.506-13.515-13.516h-17.145v-232.404h329.368
			c7.475-0.006,13.527-6.07,13.521-13.545c-0.004-2.906-0.941-5.734-2.674-8.066L-155.164-4340.425z M-432.751-4503.428
			c-4.47,0-8.094-3.624-8.094-8.095c0-4.47,3.623-8.094,8.094-8.094c4.471-0.001,8.094,3.624,8.094,8.094l0,0
			C-424.667-4507.055-428.285-4503.438-432.751-4503.428z M-419.217-4243.661L-419.217-4243.661v-44.937h43.124
			c7.475,0,13.534-6.061,13.534-13.535c0-7.474-6.061-13.534-13.534-13.534h-43.141v-50.048h67.473
			c7.475,0,13.534-6.061,13.534-13.534s-6.061-13.533-13.534-13.533h-67.473v-44.938h302.859l-66.516,89.183
			c-3.574,4.799-3.574,11.375,0,16.172l66.055,88.704h-302.398H-419.217L-419.217-4243.661z"/>
	</g>
</g>
</svg>
