<?xml version="1.0" encoding="utf-8"?>
<!-- Generator: Adobe Illustrator 16.0.0, SVG Export Plug-In . SVG Version: 6.00 Build 0)  -->
<!DOCTYPE svg PUBLIC "-//W3C//DTD SVG 1.1//EN" "http://www.w3.org/Graphics/SVG/1.1/DTD/svg11.dtd">
<svg version="1.1" id="Layer_1" xmlns="http://www.w3.org/2000/svg" xmlns:xlink="http://www.w3.org/1999/xlink" x="0px" y="0px"
	 width="217.369px" height="50.541px" viewBox="0 0 217.369 50.541" enable-background="new 0 0 217.369 50.541"
	 xml:space="preserve">
<g>
	<path fill="#FFFFFF" d="M1.033,17.721c0.564-0.028,1.073,0.054,1.521,0.246c0.448,0.195,0.836,0.449,1.161,0.761
		c0.331,0.314,0.612,0.68,0.853,1.097c0.237,0.418,0.431,0.851,0.581,1.299c0.331,1.015,0.539,2.178,0.628,3.49
		c0.149-0.298,0.358-0.642,0.626-1.03c0.359-0.626,1.03-1.535,2.013-2.729c0.479-0.565,0.985-1.104,1.524-1.61
		c0.534-0.506,1.14-0.917,1.81-1.231c0.672-0.313,1.413-0.484,2.217-0.515c0.804-0.028,1.73,0.151,2.775,0.537
		c1.012,0.358,1.811,0.851,2.394,1.477c0.582,0.627,1.03,1.32,1.342,2.081c0.315,0.762,0.545,1.567,0.692,2.418
		c0.15,0.85,0.314,1.663,0.495,2.438c0.267,1.581,0.477,2.498,0.626,2.753c0.146,0.253,0.462-0.32,0.938-1.724
		c0.238-0.746,0.597-1.588,1.073-2.528c0.478-0.939,1.046-1.774,1.701-2.507c0.656-0.73,1.375-1.26,2.147-1.589
		c0.777-0.327,1.584-0.269,2.419,0.18c0.564,0.327,1.11,0.799,1.632,1.409c0.523,0.612,0.985,1.344,1.388,2.193
		c0.403,0.851,0.738,1.79,1.008,2.82c0.269,1.027,0.447,2.11,0.535,3.243c0.093,1.163,0.217,2.134,0.382,2.909
		c0.165,0.776,0.389,1.388,0.671,1.834c0.281,0.448,0.656,0.732,1.118,0.852c0.464,0.119,1.052,0.104,1.77-0.045
		c0.535-0.118,0.909-0.029,1.118,0.268c0.208,0.3,0.224,0.643,0.044,1.03c-0.18,0.387-0.558,0.754-1.14,1.096
		c-0.584,0.343-1.367,0.516-2.35,0.516c-0.956,0-1.82-0.24-2.596-0.716c-0.776-0.478-1.477-1.076-2.104-1.79
		c-0.626-0.717-1.187-1.515-1.678-2.394c-0.495-0.881-0.913-1.746-1.253-2.597c-0.345-0.85-0.627-1.618-0.852-2.304
		c-0.224-0.688-0.396-1.209-0.517-1.567c-0.176-0.538-0.399-0.641-0.672-0.313c-0.266,0.329-0.563,0.858-0.893,1.589
		c-0.33,0.731-0.672,1.552-1.03,2.46c-0.355,0.911-0.715,1.694-1.073,2.351c-0.359,0.656-0.754,1.283-1.185,1.879
		c-0.437,0.599-0.912,1.045-1.433,1.343c-0.524,0.299-1.114,0.366-1.766,0.203c-0.66-0.164-1.39-0.679-2.196-1.546
		c-0.535-0.565-0.979-1.289-1.32-2.17c-0.345-0.879-0.627-1.818-0.849-2.819c-0.224-0.999-0.404-2.005-0.54-3.021
		c-0.132-1.015-0.238-1.97-0.312-2.864c-0.073-0.896-0.15-1.663-0.224-2.305c-0.073-0.641-0.158-1.097-0.245-1.365
		c-0.329-0.716-0.891-0.932-1.678-0.648c-0.793,0.284-1.814,1.141-3.068,2.573c-0.626,0.688-1.073,1.618-1.342,2.796
		c-0.267,1.18-0.447,2.381-0.534,3.604c-0.092,1.224-0.121,2.357-0.092,3.401c0.028,1.044,0.043,1.79,0.043,2.237
		s-0.146,0.851-0.446,1.208c-0.297,0.359-0.687,0.626-1.162,0.806c-0.48,0.178-1.03,0.231-1.657,0.157
		c-0.626-0.075-1.252-0.337-1.88-0.783c-0.389-0.298-0.729-0.963-1.03-1.992c-0.296-1.029-0.535-2.229-0.714-3.602
		c-0.18-1.372-0.308-2.827-0.381-4.363c-0.073-1.537-0.088-2.954-0.045-4.252c0.045-1.299,0.15-2.38,0.313-3.244
		C0.501,18.244,0.733,17.781,1.033,17.721z"/>
	<path fill="#FFFFFF" d="M75.533,17.023c0.269-0.298,0.583-0.426,0.938-0.381c0.36,0.045,0.72,0.186,1.078,0.425
		c0.354,0.238,0.692,0.522,1.005,0.85c0.314,0.329,0.546,0.611,0.696,0.851c0.175,0.27,0.311,0.68,0.398,1.231
		c0.092,0.553,0.158,1.09,0.202,1.611c0.049,0.521,0.099,0.947,0.157,1.274c0.059,0.329,0.164,0.402,0.315,0.223
		c0.117-0.178,0.341-0.513,0.671-1.005c0.326-0.492,0.766-1.001,1.319-1.522s1.224-0.976,2.011-1.365
		c0.793-0.388,1.708-0.537,2.753-0.447c0.748,0.06,1.485,0.246,2.218,0.56c0.729,0.313,1.363,0.762,1.902,1.343
		c0.535,0.581,0.961,1.305,1.274,2.17c0.313,0.866,0.44,1.852,0.382,2.954c-0.062,1.163-0.285,2.188-0.675,3.065
		c-0.384,0.881-0.908,1.626-1.564,2.237c-0.656,0.612-1.396,1.104-2.213,1.478c-0.822,0.373-1.679,0.648-2.574,0.827
		c-1.583,0.33-2.649,0.448-3.202,0.358c-0.55-0.09-0.766-0.374-0.649-0.851c0.063-0.238,0.18-0.439,0.359-0.604
		s0.424-0.328,0.741-0.492c0.312-0.165,0.699-0.343,1.161-0.537s1.007-0.455,1.635-0.783c0.563-0.298,1.081-0.738,1.542-1.32
		c0.462-0.582,0.785-1.209,0.964-1.88c0.177-0.67,0.192-1.35,0.045-2.036c-0.149-0.686-0.538-1.282-1.165-1.79
		c-1.045-0.865-2.081-1.044-3.108-0.537c-1.03,0.507-1.901,1.566-2.621,3.177c-0.325,0.717-0.578,1.731-0.759,3.044
		c-0.179,1.313-0.307,2.753-0.381,4.319c-0.073,1.566-0.113,3.185-0.113,4.855c0,1.67,0.008,3.236,0.025,4.698
		c0.015,1.461,0.022,2.745,0.022,3.849c0,1.103-0.032,1.863-0.092,2.283c-0.088,0.626-0.312,1.027-0.671,1.207
		c-0.359,0.178-0.777,0.224-1.254,0.134c-0.476-0.09-0.959-0.288-1.454-0.604c-0.491-0.312-0.901-0.649-1.231-1.007
		c-0.117-0.118-0.224-0.665-0.311-1.632c-0.09-0.972-0.166-2.194-0.225-3.671c-0.06-1.477-0.105-3.14-0.136-4.99
		c-0.029-1.85-0.044-3.736-0.044-5.662c0-1.924,0.015-3.811,0.044-5.66c0.03-1.85,0.076-3.514,0.136-4.989
		c0.059-1.478,0.124-2.692,0.201-3.647C75.361,17.679,75.445,17.142,75.533,17.023z"/>
	<path fill="#FFFFFF" d="M97.029,8.324c0.402-0.417,0.889-0.823,1.466-1.216c0.57-0.394,1.156-0.697,1.752-0.909
		c0.594-0.216,1.191-0.315,1.788-0.302c0.598,0.015,1.152,0.228,1.662,0.638c0.336,0.299,0.364,0.772,0.091,1.424
		c-0.279,0.649-0.732,1.369-1.361,2.152c-0.631,0.785-1.381,1.581-2.249,2.387c-0.872,0.802-1.732,1.507-2.583,2.107
		c-0.852,0.603-1.625,1.051-2.326,1.348c-0.699,0.298-1.194,0.34-1.482,0.124c-0.401-0.313-0.495-0.85-0.286-1.608
		c0.209-0.758,0.545-1.568,1.008-2.424c0.462-0.857,0.947-1.643,1.455-2.357C96.468,8.973,96.824,8.521,97.029,8.324z"/>
	<path fill="#FFFFFF" d="M101.357,21.407c0.18-0.298,0.44-0.573,0.784-0.827c0.345-0.252,0.7-0.478,1.073-0.67
		c0.375-0.195,0.748-0.345,1.119-0.449c0.374-0.104,0.681-0.155,0.92-0.155c0.116,0,0.216,0.119,0.289,0.357
		c0.073,0.239,0.15,0.553,0.224,0.939c0.073,0.389,0.128,0.828,0.157,1.32c0.029,0.491,0.059,0.992,0.088,1.498
		c0.063,1.195,0.077,2.553,0.048,4.074c0.386-0.776,0.803-1.537,1.25-2.283c0.389-0.627,0.835-1.275,1.346-1.947
		c0.505-0.67,1.03-1.245,1.565-1.723c0.504-0.447,1.065-0.79,1.678-1.028c0.611-0.239,1.231-0.337,1.858-0.292
		c0.626,0.045,1.23,0.276,1.81,0.694c0.582,0.419,1.1,1.045,1.547,1.879c0.297,0.566,0.521,1.275,0.671,2.127
		c0.146,0.851,0.26,1.745,0.334,2.685c0.077,0.939,0.15,1.888,0.222,2.842c0.079,0.955,0.21,1.835,0.404,2.64
		c0.194,0.807,0.463,1.493,0.808,2.059c0.344,0.567,0.841,0.927,1.496,1.073c0.541,0.151,1.069,0.157,1.593,0.023
		c0.52-0.134,1.012-0.313,1.476-0.537c0.462-0.224,0.866-0.417,1.206-0.58c0.345-0.165,0.591-0.203,0.741-0.113
		c0.118,0.119,0.052,0.447-0.202,0.985c-0.252,0.535-0.671,1.09-1.252,1.655c-0.583,0.566-1.313,1.053-2.192,1.454
		c-0.884,0.402-1.888,0.528-3.024,0.382c-2.234-0.3-3.848-1.456-4.831-3.47c-0.985-2.014-1.553-4.646-1.7-7.898
		c-0.062-1.164-0.2-2.027-0.425-2.595c-0.224-0.567-0.517-0.865-0.876-0.896c-0.354-0.029-0.767,0.172-1.228,0.604
		c-0.466,0.435-0.965,1.053-1.5,1.857c-0.626,0.927-1.092,1.851-1.389,2.775s-0.497,1.79-0.604,2.597
		c-0.104,0.804-0.172,1.521-0.202,2.146c-0.029,0.627-0.07,1.693-0.191,1.992c-0.151,0.329-0.462,0.551-0.938,0.671
		c-0.478,0.119-0.994,0.179-1.543,0.179c-0.553,0-1.092-0.06-1.612-0.179c-0.523-0.12-0.887-0.27-1.097-0.449
		c-0.12-0.117-0.216-0.542-0.293-1.273c-0.073-0.732-0.156-2.215-0.186-3.244s-0.04-2.134-0.022-3.313
		c0.015-1.178,0.045-2.296,0.089-3.356c0.044-1.058,0.113-1.976,0.201-2.752C101.132,22.109,101.241,21.617,101.357,21.407z"/>
	<path fill="#FFFFFF" d="M139.634,17.023c0.267-0.298,0.58-0.426,0.938-0.381c0.359,0.045,0.715,0.186,1.074,0.425
		c0.359,0.238,0.692,0.522,1.009,0.85c0.311,0.329,0.541,0.611,0.691,0.851c0.181,0.27,0.315,0.68,0.404,1.231
		c0.088,0.553,0.157,1.09,0.2,1.611c0.045,0.521,0.097,0.947,0.158,1.274c0.059,0.329,0.161,0.402,0.312,0.223
		c0.12-0.178,0.344-0.513,0.67-1.005c0.33-0.492,0.771-1.001,1.32-1.522c0.554-0.521,1.224-0.976,2.016-1.365
		c0.791-0.388,1.707-0.537,2.752-0.447c0.745,0.06,1.485,0.246,2.215,0.56c0.732,0.313,1.367,0.762,1.902,1.343
		c0.537,0.581,0.964,1.305,1.274,2.17c0.315,0.866,0.44,1.852,0.382,2.954c-0.06,1.163-0.283,2.188-0.671,3.065
		c-0.389,0.881-0.909,1.626-1.565,2.237c-0.66,0.612-1.396,1.104-2.217,1.478s-1.68,0.648-2.573,0.827
		c-1.583,0.33-2.649,0.448-3.199,0.358c-0.554-0.09-0.771-0.374-0.649-0.851c0.059-0.238,0.181-0.439,0.359-0.604
		c0.176-0.164,0.425-0.328,0.736-0.492c0.315-0.165,0.7-0.343,1.166-0.537c0.462-0.194,1.004-0.455,1.631-0.783
		c0.568-0.298,1.082-0.738,1.547-1.32c0.462-0.582,0.779-1.209,0.959-1.88c0.18-0.67,0.195-1.35,0.045-2.036
		c-0.15-0.686-0.534-1.282-1.161-1.79c-1.045-0.865-2.082-1.044-3.112-0.537c-1.029,0.507-1.902,1.566-2.616,3.177
		c-0.33,0.717-0.582,1.731-0.763,3.044c-0.18,1.313-0.305,2.753-0.381,4.319c-0.074,1.566-0.11,3.185-0.11,4.855
		c0,1.67,0.007,3.236,0.022,4.698c0.014,1.461,0.021,2.745,0.021,3.849c0,1.103-0.028,1.863-0.088,2.283
		c-0.092,0.626-0.315,1.027-0.671,1.207c-0.358,0.178-0.777,0.224-1.253,0.134c-0.481-0.09-0.965-0.288-1.455-0.604
		c-0.495-0.312-0.906-0.649-1.232-1.007c-0.12-0.118-0.224-0.665-0.312-1.632c-0.091-0.972-0.164-2.194-0.227-3.671
		c-0.059-1.477-0.103-3.14-0.132-4.99c-0.029-1.85-0.044-3.736-0.044-5.662c0-1.924,0.015-3.811,0.044-5.66s0.073-3.514,0.132-4.989
		c0.063-1.478,0.128-2.692,0.202-3.647C139.462,17.679,139.542,17.142,139.634,17.023z"/>
	<path fill="#FFFFFF" d="M216.966,24.139c-0.272-0.508-0.649-1.008-1.144-1.499c-0.491-0.494-1.074-0.925-1.745-1.299
		c-0.671-0.373-1.393-0.573-2.169-0.604c-0.714-0.029-1.367,0.208-1.946,0.716c-0.583,0.508-1.114,1.163-1.591,1.968
		c-0.477,0.807-0.917,1.687-1.319,2.643c-0.403,0.955-0.777,1.872-1.118,2.75c-0.344,0.881-0.664,1.65-0.965,2.307
		c-0.297,0.656-0.577,1.088-0.849,1.298c-0.419,0.299-0.767,0.171-1.052-0.381c-0.283-0.553-0.551-1.29-0.804-2.215
		c-0.257-0.925-0.494-1.902-0.717-2.931c-0.225-1.031-0.469-1.874-0.738-2.529c-0.271-0.628-0.56-1.246-0.871-1.858
		c-0.315-0.611-0.697-1.081-1.145-1.409c-0.447-0.327-0.981-0.462-1.608-0.402s-1.375,0.433-2.24,1.118
		c-0.864,0.686-1.58,1.649-2.146,2.887c-0.568,1.239-1.038,2.499-1.411,3.782c-0.374,1.282-0.679,2.453-0.916,3.514
		c-0.239,1.059-0.448,1.751-0.627,2.08c-0.18,0.328-0.514,0.224-1.009-0.313c-0.49-0.537-0.961-1.379-1.405-2.529
		c-0.448-1.148-0.808-2.551-1.076-4.206c-0.271-1.655-0.285-3.452-0.047-5.392c0.029-0.418-0.073-0.813-0.312-1.188
		c-0.238-0.371-0.567-0.663-0.986-0.872c-0.418-0.209-0.909-0.313-1.477-0.313c-0.564,0-1.161,0.148-1.788,0.446
		c-0.417,0.21-0.712,0.627-0.872,1.253c-0.166,0.627-0.224,1.366-0.181,2.217c0.044,0.85,0.165,1.759,0.359,2.729
		s0.425,1.909,0.693,2.818c0.032,0.11,0.067,0.206,0.1,0.313c-0.115,0.088-0.242,0.229-0.384,0.435
		c-0.297,0.433-0.999,1.468-1.417,2.004c-0.418,0.537-0.888,1.023-1.407,1.454c-0.524,0.435-1.114,0.591-1.771,0.471
		c-0.952-0.207-1.595-0.932-1.924-2.171c-0.33-1.236-0.448-3.064-0.359-5.48c0.063-1.194-0.037-2.037-0.289-2.528
		c-0.252-0.494-0.591-0.783-1.008-0.874c-0.418-0.09-0.858-0.074-1.32,0.046c-0.461,0.118-0.857,0.193-1.184,0.223
		c-0.33,0.03-0.561,0.254-0.696,0.671c-0.131,0.419-0.223,0.911-0.267,1.479c-0.045,0.566-0.052,1.141-0.023,1.722
		c0.029,0.582,0.044,1.037,0.044,1.365s-0.135,0.798-0.401,1.409c-0.27,0.612-0.614,1.208-1.03,1.791
		c-0.418,0.581-0.888,1.097-1.408,1.544c-0.524,0.447-1.022,0.67-1.499,0.67c-0.389,0-0.71-0.394-0.964-1.186
		c-0.253-0.789-0.388-1.729-0.403-2.819c-0.015-1.089,0.1-2.229,0.337-3.423c0.238-1.193,0.656-2.222,1.254-3.089
		c0.385-0.536,0.866-0.968,1.43-1.297c0.568-0.328,1.121-0.626,1.656-0.896c0.539-0.269,1.015-0.528,1.433-0.783
		c0.419-0.253,0.671-0.573,0.763-0.961c0.059-0.24-0.129-0.426-0.561-0.56c-0.433-0.134-1-0.187-1.701-0.157
		c-0.699,0.029-1.491,0.157-2.37,0.381c-0.88,0.223-1.764,0.581-2.644,1.073c-0.88,0.493-1.708,1.127-2.481,1.902
		c-0.775,0.775-1.403,1.716-1.88,2.818c-0.719,1.702-1.052,3.319-1.008,4.855c0.044,1.538,0.344,2.887,0.895,4.051
		c0.553,1.164,1.29,2.089,2.218,2.775c0.924,0.687,1.909,1.015,2.953,0.984c1.041-0.061,1.925-0.291,2.64-0.694
		c0.715-0.402,1.297-0.843,1.744-1.32c0.539-0.536,0.957-1.163,1.253-1.879c0.36,1.104,0.837,2.028,1.434,2.775
		c0.268,0.327,0.563,0.626,0.895,0.894c0.329,0.27,0.706,0.478,1.143,0.627c0.431,0.149,0.917,0.224,1.452,0.224
		c0.538,0,1.121-0.119,1.749-0.357c1.19-0.448,2.168-1.081,2.928-1.902c0.761-0.82,1.337-1.64,1.722-2.461
		c0.321-0.68,0.762-1.677,0.94-2.374c0.089,0.242,0.177,0.492,0.27,0.718c0.297,0.731,0.565,1.29,0.806,1.679
		c0.356,0.597,0.822,1.2,1.386,1.812c0.568,0.612,1.218,1.157,1.946,1.633c0.733,0.479,1.54,0.829,2.419,1.053
		c0.88,0.224,1.811,0.231,2.796,0.022c1.016-0.207,1.83-0.544,2.438-1.008c0.611-0.462,1.114-0.983,1.503-1.565
		c0.385-0.582,0.7-1.216,0.938-1.902c0.238-0.686,0.477-1.371,0.716-2.059c0.271-0.686,0.476-1.238,0.626-1.655
		c0.149-0.418,0.274-0.672,0.381-0.761c0.104-0.09,0.209,0.007,0.314,0.29c0.104,0.284,0.228,0.77,0.378,1.455
		c0.121,0.716,0.366,1.492,0.741,2.327c0.369,0.835,0.835,1.604,1.385,2.305c0.553,0.701,1.173,1.27,1.857,1.701
		c0.686,0.432,1.434,0.604,2.24,0.514c0.864-0.089,1.594-0.313,2.192-0.671c0.597-0.357,1.096-0.829,1.497-1.409
		c0.403-0.583,0.745-1.282,1.031-2.104c0.281-0.82,0.542-1.754,0.78-2.797c0.48-2.118,1.15-3.588,2.017-4.409
		c0.864-0.819,1.656-0.976,2.37-0.47c0.685,0.508,1.195,0.755,1.521,0.739c0.33-0.016,0.494-0.188,0.494-0.516
		C217.369,25.063,217.233,24.646,216.966,24.139z"/>
	<path fill-rule="evenodd" clip-rule="evenodd" fill="#FFFFFF" d="M62.977,37.347c-1.439,0.113-2.626-0.502-3.656-1.678
		c-3.7-5.272-4.669-5.304-8.683-0.107c-1.609,1.799-3.786,2.335-5.919,1.453c-2.01-0.827-3.341-2.93-2.965-5.339
		c0.938-5.965,3.761-10.989,8.38-14.854c2.55-2.135,6.694-2.199,9.304-0.156c4.874,3.817,7.841,8.893,8.598,15.06
		C68.46,35.176,66.355,37.35,62.977,37.347z"/>
	<path fill-rule="evenodd" clip-rule="evenodd" fill="#FFFFFF" d="M66,5.295c-0.43,2.908-1.54,5.091-3.716,6.6
		c-2.52,1.747-5.106,0.669-5.559-2.346c-0.482-3.197,0.629-5.9,2.925-8.112c1.244-1.197,2.773-1.898,4.434-1.087
		c1.557,0.761,1.985,2.309,1.948,3.971C66.025,4.755,66.005,5.189,66,5.295z"/>
	<path fill-rule="evenodd" clip-rule="evenodd" fill="#FFFFFF" d="M63.833,15.873c0.372-2.923,3.482-5.994,6.358-6.28
		c2.407-0.237,3.947,1.408,3.55,3.791c-0.479,2.863-3.236,5.619-6.099,6.099C65.09,19.909,63.511,18.411,63.833,15.873z"/>
	<path fill-rule="evenodd" clip-rule="evenodd" fill="#FFFFFF" d="M44.521,5.295c0.43,2.908,1.54,5.091,3.716,6.6
		c2.52,1.747,5.106,0.669,5.559-2.346c0.482-3.197-0.629-5.9-2.925-8.112c-1.244-1.197-2.773-1.898-4.434-1.087
		C44.88,1.11,44.452,2.658,44.489,4.32C44.497,4.755,44.516,5.189,44.521,5.295z"/>
	<path fill-rule="evenodd" clip-rule="evenodd" fill="#FFFFFF" d="M46.647,15.873c-0.372-2.923-3.482-5.994-6.358-6.28
		c-2.407-0.237-3.947,1.408-3.55,3.791c0.479,2.863,3.236,5.619,6.099,6.099C45.389,19.909,46.968,18.411,46.647,15.873z"/>
</g>
</svg>
