<?xml version="1.0" encoding="utf-8"?>
<!-- Generator: Adobe Illustrator 16.0.0, SVG Export Plug-In . SVG Version: 6.00 Build 0)  -->
<!DOCTYPE svg PUBLIC "-//W3C//DTD SVG 1.1//EN" "http://www.w3.org/Graphics/SVG/1.1/DTD/svg11.dtd">
<svg version="1.1" id="Capa_1" xmlns="http://www.w3.org/2000/svg" xmlns:xlink="http://www.w3.org/1999/xlink" x="0px" y="0px"
	 width="599.999px" height="521.207px" viewBox="100 39.397 599.999 521.207" enable-background="new 100 39.397 599.999 521.207"
	 xml:space="preserve">
<g>
	<g>
		<path fill="#484848" d="M619.56,138.956l-62.968-0.33l-60.329-90c-3.627-5.604-9.89-9.229-16.484-9.229H317.253
			c-6.594,0-12.528,3.626-16.153,8.9l-62.308,90.329l-58.352,0.33c-44.176,0-80.44,36.264-80.44,80.438v260.109
			c0,44.177,36.264,81.1,80.439,81.1H619.56c44.177,0,80.439-36.923,80.439-81.1V219.395C700,175.22,663.736,138.956,619.56,138.956
			z M660.439,479.504c0,22.418-18.462,41.539-40.879,41.539H180.44c-22.418,0-40.879-19.121-40.879-41.539V219.395
			c0-22.418,18.462-40.879,40.879-40.879h68.901c6.594,0,12.528-3.626,16.153-8.9l62.308-90.329h141.429l60,89.67
			c3.627,5.274,9.891,8.901,16.153,8.901l73.847,0.66c22.418,0,40.879,18.462,40.879,40.878v260.11h0.329V479.504z"/>
		<path fill="#484848" d="M401.648,186.428c-77.472,0-140.11,62.968-140.11,140.11s62.967,140.109,140.11,140.109
			c77.143,0,140.109-62.968,140.109-140.11S478.791,186.428,401.648,186.428z M401.648,427.087
			c-55.385,0-100.55-45.165-100.55-100.55s45.165-100.55,100.55-100.55c55.384,0,100.55,45.165,100.55,100.55
			S457.033,427.087,401.648,427.087z"/>
		<circle fill="#484848" cx="589.23" cy="244.451" r="7.583"/>
		<path fill="#484848" d="M589.23,217.088c-15.164,0-27.362,12.197-27.362,27.362c0,15.166,12.197,27.363,27.362,27.363
			c15.166,0,27.363-12.197,27.363-27.363C616.594,229.285,604.396,217.088,589.23,217.088z M589.23,256.648
			c-6.923,0-12.197-5.604-12.197-12.197s5.605-12.197,12.197-12.197c6.594,0,12.197,5.604,12.197,12.197
			S596.154,256.648,589.23,256.648z"/>
	</g>
</g>
</svg>
