<?xml version="1.0" encoding="utf-8"?>
<!-- Generator: Adobe Illustrator 16.0.0, SVG Export Plug-In . SVG Version: 6.00 Build 0)  -->
<!DOCTYPE svg PUBLIC "-//W3C//DTD SVG 1.1//EN" "http://www.w3.org/Graphics/SVG/1.1/DTD/svg11.dtd">
<svg version="1.1" id="Layer_1" xmlns="http://www.w3.org/2000/svg" xmlns:xlink="http://www.w3.org/1999/xlink" x="0px" y="0px"
	 width="37.127px" height="37.431px" viewBox="0 0 37.127 37.431" enable-background="new 0 0 37.127 37.431" xml:space="preserve">
<g>
	<path fill-rule="evenodd" clip-rule="evenodd" fill="#59595A" d="M26.301,37.347c-1.439,0.113-2.626-0.502-3.656-1.678
		c-3.7-5.272-4.669-5.304-8.683-0.107c-1.609,1.799-3.786,2.335-5.919,1.453c-2.01-0.827-3.341-2.93-2.965-5.339
		c0.938-5.965,3.761-10.989,8.38-14.854c2.55-2.135,6.694-2.199,9.304-0.156c4.874,3.817,7.841,8.893,8.598,15.06
		C31.784,35.176,29.679,37.35,26.301,37.347z"/>
	<path fill-rule="evenodd" clip-rule="evenodd" fill="#59595A" d="M29.324,5.295c-0.43,2.908-1.54,5.091-3.716,6.6
		c-2.52,1.747-5.106,0.669-5.559-2.346c-0.482-3.197,0.629-5.9,2.925-8.112c1.244-1.197,2.773-1.898,4.434-1.087
		c1.557,0.761,1.985,2.309,1.948,3.971C29.349,4.755,29.329,5.189,29.324,5.295z"/>
	<path fill-rule="evenodd" clip-rule="evenodd" fill="#59595A" d="M27.156,15.873c0.372-2.923,3.482-5.994,6.358-6.28
		c2.407-0.237,3.947,1.408,3.55,3.791c-0.479,2.863-3.236,5.619-6.099,6.099C28.414,19.909,26.835,18.411,27.156,15.873z"/>
	<path fill-rule="evenodd" clip-rule="evenodd" fill="#59595A" d="M7.845,5.295c0.43,2.908,1.54,5.091,3.716,6.6
		c2.52,1.747,5.106,0.669,5.559-2.346c0.482-3.197-0.629-5.9-2.925-8.112C12.95,0.239,11.421-0.462,9.761,0.35
		C8.204,1.11,7.775,2.658,7.813,4.32C7.82,4.755,7.84,5.189,7.845,5.295z"/>
	<path fill-rule="evenodd" clip-rule="evenodd" fill="#59595A" d="M9.971,15.873c-0.372-2.923-3.482-5.994-6.358-6.28
		c-2.407-0.237-3.947,1.408-3.55,3.791c0.479,2.863,3.236,5.619,6.099,6.099C8.713,19.909,10.292,18.411,9.971,15.873z"/>
</g>
</svg>
