<?xml version="1.0" encoding="utf-8"?>
<!-- Generator: Adobe Illustrator 16.0.0, SVG Export Plug-In . SVG Version: 6.00 Build 0)  -->
<!DOCTYPE svg PUBLIC "-//W3C//DTD SVG 1.1//EN" "http://www.w3.org/Graphics/SVG/1.1/DTD/svg11.dtd">
<svg version="1.1" id="Layer_1" xmlns="http://www.w3.org/2000/svg" xmlns:xlink="http://www.w3.org/1999/xlink" x="0px" y="0px"
	 width="841.853px" height="806.626px" viewBox="0.019 286.52 841.853 806.626"
	 enable-background="new 0.019 286.52 841.853 806.626" xml:space="preserve">
<path id="flaticon1507554174-svg" fill="#F5E03F" d="M823.625,652.119c23.881-23.256,24.387-61.469,1.129-85.352
	c-9.277-9.525-21.439-15.721-34.6-17.625L586.32,519.521c-8.686-1.244-16.199-6.691-20.082-14.559l-91.15-184.756
	c-14.74-29.9-50.926-42.191-80.826-27.453c-11.924,5.879-21.574,15.527-27.451,27.453l-91.15,184.699
	c-3.893,7.861-11.4,13.305-20.082,14.561L51.744,549.142c-32.992,4.773-55.869,35.387-51.096,68.377
	c1.902,13.16,8.1,25.324,17.625,34.6l147.492,143.756c6.293,6.119,9.172,14.943,7.697,23.596l-34.809,202.998
	c-3.191,17.475,1.643,35.459,13.166,48.979c18.385,21.582,49.213,27.66,74.414,14.672l182.303-95.838
	c7.795-3.982,17.029-3.982,24.824,0l182.301,95.838c8.586,4.578,18.16,6.992,27.893,7.027c17.881-0.037,34.83-7.982,46.301-21.699
	c11.529-13.516,16.363-31.504,13.164-48.979L668.433,819.47c-1.475-8.652,1.404-17.477,7.699-23.596L823.625,652.119z"/>
</svg>
