<?xml version="1.0" encoding="utf-8"?>
<!-- Generator: Adobe Illustrator 16.0.0, SVG Export Plug-In . SVG Version: 6.00 Build 0)  -->
<!DOCTYPE svg PUBLIC "-//W3C//DTD SVG 1.1//EN" "http://www.w3.org/Graphics/SVG/1.1/DTD/svg11.dtd">
<svg version="1.1" id="Layer_1" xmlns="http://www.w3.org/2000/svg" xmlns:xlink="http://www.w3.org/1999/xlink" x="0px" y="0px"
	 width="475.965px" height="429.074px" viewBox="229.035 89.662 475.965 429.074"
	 enable-background="new 229.035 89.662 475.965 429.074" xml:space="preserve">
<g id="Group_33" transform="translate(890 3936)">
	<g>
		<path id="Subtraction_4_8_" fill="#EBAD20" d="M-406.396-3517.449h-203.807c-28.125-0.148-50.828-23.024-50.762-51.149v-164.146
			c0.032-28.021,22.74-50.729,50.762-50.762l36.817-0.193l39.318-57.027c2.283-3.425,6.094-5.52,10.209-5.61h102.581
			c4.234,0.073,8.149,2.271,10.417,5.848l38.053,56.79l39.734,0.193c28.027,0.024,50.744,22.735,50.777,50.762v84.171
			c-11.33-10.275-28.846-9.418-39.12,1.912c-4.546,5.013-7.099,11.516-7.178,18.283v61.283h-61.283
			c-15.198,0.106-27.442,12.496-27.367,27.695c0.044,8.576,4.008,16.662,10.76,21.951H-406.396z M-470.612-3753.55
			c-48.836,0.009-88.42,39.605-88.412,88.443s39.605,88.421,88.442,88.413c48.838-0.008,88.421-39.604,88.413-88.442
			C-382.227-3713.953-421.795-3753.509-470.612-3753.55z M-470.612-3601.666c-35.045-0.009-63.449-28.425-63.44-63.471
			c0.008-35.046,28.425-63.45,63.471-63.441c35.034,0.008,63.434,28.407,63.441,63.441
			C-407.174-3630.096-435.571-3601.699-470.612-3601.666z"/>
		<path id="flaticon1507562242-svg_8_" fill="#EBAD20" d="M-208.632-3540.427h-52.28v-52.279c0-13.052-10.58-23.633-23.632-23.633
			s-23.633,10.581-23.633,23.633v52.279h-52.28c-13.051,0.008-23.626,10.594-23.619,23.646
			c0.007,13.042,10.578,23.612,23.619,23.619h52.28v52.28c0.007,13.052,10.594,23.627,23.646,23.619
			c13.041-0.007,23.612-10.577,23.619-23.619v-52.28h52.28c13.052,0,23.632-10.58,23.632-23.632
			C-185-3529.847-195.58-3540.427-208.632-3540.427z"/>
	</g>
</g>
</svg>
